VertexLitGeneric
{
	"$baseTexture" "models\weapons\w_models\csgo\w_smg_mp9\smg_mp9"

	"$phong" "1"
	"$phongboost" "2"
	"$phongalbedoboost" "290"
	"$phongfresnelranges" "[.3 .3 1]"

	"$phongexponenttexture" "models\weapons\w_models\csgo\w_smg_mp9\smg_mp9_exponent"

	"$basemapalphaphongmask" "1"
	

	"$envmap" "env_cubemap"
	"$envmapfresnel" "1"
	"$envmapFresnelMinMaxExp" "[0 5 .4]"
	"$envmaptint" 		"[.007 .007 .007]"

	"$phongalbedotint" "1"
	"$phongdisablehalflambert" "1"
}






