"VertexLitGeneric"
{
	"$baseTexture" "models\weapons\v_models\csgo\rif_sg556\rif_sg556"

	"$phong" "1"
	"$phongboost" "1.5"
	"$phongalbedoboost" "30"
	"$phongfresnelranges" "[.83 .83 1]"
	"$phongexponenttexture" "models\weapons\v_models\csgo\rif_sg556\rif_sg556_exponent"

	"$basemapalphaphongmask" "1"

	"$envmap" "env_cubemap"
	"$envmapfresnel" "1"
	"$envmaptint" 		"[.05 .05 .05]"

	"$phongalbedotint" "1"

	"$phongdisablehalflambert" "1"
}




