"VertexLitGeneric"
{
	"$baseTexture" "models\weapons\w_models\w_eq_grenades\incendiary_grenade"
	"$basemapalphaphongmask" "1"
	"$phong" "1"
	"$phongfresnelranges" "[.83 .83 1]"
	"$phongboost" "1.2"
//	"$phongalbedoboost" "65"
//	"$phongalbedotint" "1"

	"$phongexponenttexture" "models\weapons\w_models\w_eq_grenades\incendiary_grenade_exponent"

	"$phongdisablehalflambert" "1"

	"$envmap" "env_cubemap"
	"$envmapfresnel" "1"
	"$envmaptint" 		"[.1 .1 .1]"
}
