"VertexLitGeneric"
{
	"$baseTexture" "models\weapons\w_models\w_eq_grenades\smoke_grenade"
	"$basemapalphaphongmask" "1"
	"$phong" "1"
	"$phongfresnelranges" "[.83 .83 1]"
	"$phongboost" ".5"
	"$phongalbedoboost" "15"

	"$phongalbedotint" "1"

	"$phongexponenttexture" "models\weapons\w_models\w_eq_grenades\smoke_grenade_exponent"

	"$phongdisablehalflambert" "1"

	"$envmap" "env_cubemap"
	"$envmapfresnel" "1"
	"$envmaptint" 		"[.5 .5 .6]"
}
